[{"transactionID":1,"tipo":"Haber","monto":"$135.76","detalle":"ante ipsum primis in faucibus orci luctus et ultrices posuere cubilia curae","accountID":1},
{"transactionID":2,"tipo":"Haber","monto":"$247.14","detalle":"sit amet consectetuer adipiscing elit proin interdum mauris non ligula pellentesque ultrices phasellus","accountID":2},
{"transactionID":3,"tipo":"Debe","monto":"$18.14","detalle":"duis consequat dui nec nisi volutpat eleifend donec ut dolor morbi vel lectus","accountID":3},
{"transactionID":4,"tipo":"Debe","monto":"$989.43","detalle":"vestibulum ante ipsum primis in faucibus orci luctus et ultrices","accountID":4},
{"transactionID":5,"tipo":"Haber","monto":"$235.31","detalle":"eget massa tempor convallis nulla neque libero convallis eget eleifend luctus ultricies","accountID":5},
{"transactionID":6,"tipo":"Haber","monto":"$766.87","detalle":"orci luctus et ultrices posuere cubilia curae duis faucibus accumsan","accountID":6},
{"transactionID":7,"tipo":"Haber","monto":"$905.99","detalle":"mauris viverra diam vitae quam suspendisse potenti nullam porttitor lacus at turpis donec posuere metus","accountID":7},
{"transactionID":8,"tipo":"Haber","monto":"$213.04","detalle":"nulla eget eros elementum pellentesque quisque porta volutpat erat quisque erat eros viverra","accountID":8},
{"transactionID":9,"tipo":"Haber","monto":"$50.71","detalle":"erat vestibulum sed magna at nunc commodo placerat praesent blandit nam nulla integer","accountID":9},
{"transactionID":10,"tipo":"Haber","monto":"$971.63","detalle":"commodo vulputate justo in blandit ultrices enim lorem ipsum dolor","accountID":10},
{"transactionID":11,"tipo":"Debe","monto":"$741.16","detalle":"ultrices phasellus id sapien in sapien iaculis congue vivamus metus arcu adipiscing molestie hendrerit at","accountID":11},
{"transactionID":12,"tipo":"Debe","monto":"$94.30","detalle":"dui nec nisi volutpat eleifend donec ut dolor morbi vel lectus in quam fringilla","accountID":12},
{"transactionID":13,"tipo":"Haber","monto":"$543.27","detalle":"nam dui proin leo odio porttitor id consequat in consequat ut nulla","accountID":13},
{"transactionID":14,"tipo":"Debe","monto":"$557.53","detalle":"fusce lacus purus aliquet at feugiat non pretium quis lectus suspendisse potenti in eleifend","accountID":14},
{"transactionID":15,"tipo":"Haber","monto":"$300.13","detalle":"interdum in ante vestibulum ante ipsum primis in faucibus orci luctus et ultrices","accountID":15},
{"transactionID":16,"tipo":"Debe","monto":"$128.45","detalle":"ut suscipit a feugiat et eros vestibulum ac est lacinia nisi venenatis tristique fusce congue","accountID":16},
{"transactionID":17,"tipo":"Debe","monto":"$911.93","detalle":"ultrices vel augue vestibulum ante ipsum primis in faucibus orci luctus et ultrices posuere cubilia","accountID":17},
{"transactionID":18,"tipo":"Debe","monto":"$949.81","detalle":"suspendisse ornare consequat lectus in est risus auctor sed tristique in tempus sit amet sem","accountID":18},
{"transactionID":19,"tipo":"Haber","monto":"$206.92","detalle":"lacinia aenean sit amet justo morbi ut odio cras mi pede malesuada in imperdiet et","accountID":19},
{"transactionID":20,"tipo":"Debe","monto":"$22.56","detalle":"proin eu mi nulla ac enim in tempor turpis nec euismod","accountID":20}]